…
With two variables, `count` returns the number of times each combination of possible values has happened.

``` r
starwars %>% 
count(eye_color, hair_color, sort = T, name = "count")
  
# A tibble: 35 × 3
#   eye_color hair_color count
#   <chr>     <chr>      <int>
# 1 black     none           9
# 2 brown     black          9
# 3 brown     brown          9
# 4 blue      brown          7
# 5 orange    none           7
# 6 yellow    none           6
# 7 blue      blond          3
# 8 blue      none           3
# 9 red       none           3
# 10 blue      black          2
# … with 25 more rows
```
…
