4 Packages | My R and Statistics Book
…
Search and download data from over 40 databases hosted by the World Bank, including the World Development Indicators (‘WDI’), International Debt Statistics, Doing Business, Human Capital Index, and Sub-national Poverty indicators, GDP, Population.

4.2.3 essurvey

Package used to easily download specific European Social Survey data.

4.2.4 wbstats

This package allows to download data from the world bank database.

library(wbstats)
wb_cachelist$indicators

## # A tibble: 16,649 × 8
##    indicator_id  indicator  unit  indicator_desc   source_org   topics source_id
##    <chr>         <chr>      <lgl> <chr>            <chr>        <list>     <dbl>
##  1 1.0.HCount.1… Poverty H… NA    The poverty hea… LAC Equity … <df […        37
##  2 1.0.HCount.2… Poverty H… NA    The poverty hea… LAC Equity … <df […        37
##  3 1.0.HCount.M… Middle Cl… NA    The poverty hea… LAC Equity … <df […        37
##  4 1.0.HCount.O… Official … NA    The poverty hea… LAC Equity … <df […        37
##  5 1.0.HCount.P… Poverty H… NA    The poverty hea… LAC Equity … <df […        37
##  6 1.0.HCount.V… Vulnerabl… NA    The poverty hea… LAC Equity … <df […        37
##  7 1.0.PGap.1.9… Poverty G… NA    The poverty gap… LAC Equity … <df […        37
##  8 1.0.PGap.2.5… Poverty G… NA    The poverty gap… LAC Equity … <df […        37
##  9 1.0.PGap.Poo… Poverty G… NA    The poverty gap… LAC Equity … <df […        37
## 10 1.0.PSev.1.9… Poverty S… NA    The poverty sev… LAC Equity … <df […        37
## # … with 16,639 more rows, and 1 more variable: source <chr>

wb_cachelist$topics

## # A tibble: 21 × 3
##    topic_id topic                           topic_desc                          
##       <dbl> <chr>                           <chr>                               
##  1        1 Agriculture & Rural Development "For the 70 percent of the world's …
##  2        2 Aid Effectiveness               "Aid effectiveness is the impact th…
##  3        3 Economy & Growth                "Economic growth is central to econ…
##  4        4 Education                       "Education is one of the most power…
##  5        5 Energy & Mining                 "The world economy needs ever-incre…
##  6        6 Environment                     "Natural and man-made environmental…
##  7        7 Financial Sector                "An economy's financial markets are…
##  8        8 Health                          "Improving health is central to the…
##  9        9 Infrastructure                  "Infrastructure helps determine the…
## 10       10 Social Protection & Labor       "The supply of labor available in a…
## # … with 11 more rows
…
